Text Analysis: Word and Document Frequency
…
Term frequency in Jane Austens novels

What are the most commonly used words in Jane Austens novels?

library(janeaustenr)
book_words <- austen_books() %>%
  unnest_tokens(word, text) %>%
  count(book, word, sort = TRUE)
total_words <- book_words %>% 
  group_by(book) %>% 
  summarize(total = sum(n))
book_words <- left_join(book_words, total_words)
book_words

## # A tibble: 40,379 x 4
##    book              word      n  total
##    <fct>             <chr> <int>  <int>
##  1 Mansfield Park    the    6206 160460
##  2 Mansfield Park    to     5475 160460
##  3 Mansfield Park    and    5438 160460
##  4 Emma              to     5239 160996
##  5 Emma              the    5201 160996
##  6 Emma              and    4896 160996
##  7 Mansfield Park    of     4778 160460
##  8 Pride & Prejudice the    4331 122204
##  9 Emma              of     4291 160996
## 10 Pride & Prejudice to     4162 122204
## #  with 40,369 more rows
…
Zipfs Law

These types of long-tailed distributions are so common in any given corpus of natural language that the relationship between the frequency that a word is used and its rank has been the subject of study; a classic version of this relationship is called Zipfs law, after George Zipf, a 20th century American linguist.

Zipfs law states that the frequency that a word appears is inversely proportional to its rank.

Lets examine Zipfs law for Jane Austens novels.

freq_by_rank <- book_words %>% 
  group_by(book) %>% 
  mutate(rank = row_number(), 
         `term frequency` = n/total)
freq_by_rank

## # A tibble: 40,379 x 6
## # Groups:   book [6]
##    book              word      n  total  rank `term frequency`
##    <fct>             <chr> <int>  <int> <int>            <dbl>
##  1 Mansfield Park    the    6206 160460     1           0.0387
##  2 Mansfield Park    to     5475 160460     2           0.0341
##  3 Mansfield Park    and    5438 160460     3           0.0339
##  4 Emma              to     5239 160996     1           0.0325
##  5 Emma              the    5201 160996     2           0.0323
##  6 Emma              and    4896 160996     3           0.0304
##  7 Mansfield Park    of     4778 160460     4           0.0298
##  8 Pride & Prejudice the    4331 122204     1           0.0354
##  9 Emma              of     4291 160996     4           0.0267
## 10 Pride & Prejudice to     4162 122204     2           0.0341
## #  with 40,369 more rows
…
Fitting an exponent for Zipfs law with Jane Austens novels

We have found a result close to the classic version of Zipfs law for the corpus of Jane Austens novels. The deviations we see here at high rank are not uncommon for many kinds of language; a corpus of language often contains fewer rare words than predicted by a single power law. The deviations at low rank are more unusual. Jane Austen uses a lower percentage of the most common words than many collections of language. This kind of analysis could be extended to compare authors, or to compare any other collections of text; it can be implemented simply using tidy data principles.

The bind_tf_idf function

The idea of tf-idf is to find the important words for the content of each document by decreasing the weight for commonly used words and increasing the weight for words that are not used very much in a collection or corpus of documents, in this case, the group of Jane Austens novels as a whole. Calculating tf-idf attempts to find the words that are important (i.e., common) in a text, but not too common. Lets do that now.

The bind_tf_idf function in the tidytext package takes a tidy text dataset as input with one row per token, per document. One column (word here) contains the terms/tokens, one column contains the documents (book in this case), and the last necessary column contains the counts, how many times each document contains each term (n in this example).

book_words <- book_words %>%
  bind_tf_idf(word, book, n)
book_words

## # A tibble: 40,379 x 7
##    book              word      n  total     tf   idf tf_idf
##    <fct>             <chr> <int>  <int>  <dbl> <dbl>  <dbl>
##  1 Mansfield Park    the    6206 160460 0.0387     0      0
##  2 Mansfield Park    to     5475 160460 0.0341     0      0
##  3 Mansfield Park    and    5438 160460 0.0339     0      0
##  4 Emma              to     5239 160996 0.0325     0      0
##  5 Emma              the    5201 160996 0.0323     0      0
##  6 Emma              and    4896 160996 0.0304     0      0
##  7 Mansfield Park    of     4778 160460 0.0298     0      0
##  8 Pride & Prejudice the    4331 122204 0.0354     0      0
##  9 Emma              of     4291 160996 0.0267     0      0
## 10 Pride & Prejudice to     4162 122204 0.0341     0      0
## #  with 40,369 more rows

Notice that idf and thus tf-idf are zero for extremely common words. These are all words that appear in all six of Jane Austens novels, so the idf term (which will then be the natural log of 1) is zero. The inverse document frequency (and thus tf-idf) is very low (near zero) for words that occur in many of the documents in a collection; this is how this approach decreases the weight for common words. The inverse document frequency will be a higher number for words that occur in fewer of the documents in the collection.

Lets look at terms with high tf-idf in Jane Austens works.

book_words %>%
  select(-total) %>%
  arrange(desc(tf_idf))

## # A tibble: 40,379 x 6
##    book                word          n      tf   idf  tf_idf
##    <fct>               <chr>     <int>   <dbl> <dbl>   <dbl>
##  1 Sense & Sensibility elinor      623 0.00519  1.79 0.00931
##  2 Sense & Sensibility marianne    492 0.00410  1.79 0.00735
##  3 Mansfield Park      crawford    493 0.00307  1.79 0.00551
##  4 Pride & Prejudice   darcy       373 0.00305  1.79 0.00547
##  5 Persuasion          elliot      254 0.00304  1.79 0.00544
##  6 Emma                emma        786 0.00488  1.10 0.00536
##  7 Northanger Abbey    tilney      196 0.00252  1.79 0.00452
##  8 Emma                weston      389 0.00242  1.79 0.00433
##  9 Pride & Prejudice   bennet      294 0.00241  1.79 0.00431
## 10 Persuasion          wentworth   191 0.00228  1.79 0.00409
## #  with 40,369 more rows
…
