Pecan Street Data with dbplyr
…
When youre done fiddling with the database and have finally figured out what data works for your intended purposes just use collect() to create a local tibble.

collected_weather <- weather_hours %>%
  collect()

## Warning: Missing values are always removed in SQL.
## Use `AVG(x, na.rm = TRUE)` to silence this warning

collected_weather

## # A tibble: 189,961 x 29
##    localhour           latitude longitude tz_offset summary ozone
##  * <dttm>                 <dbl>     <dbl>     <int> <chr>   <dbl>
##  1 2017-10-19 01:00:00     32.8    -117.         -7 Clear     NA 
##  2 2017-10-19 01:00:00     40.0    -105.         -6 Foggy     NA 
##  3 2017-10-19 01:00:00     30.3     -97.7        -5 Clear     NA 
##  4 2016-09-19 11:00:00     32.8    -117.         -7 Partly  269.
##  5 2016-09-19 11:00:00     40.0    -105.         -6 Clear    269.
##  6 2016-09-19 11:00:00     30.3     -97.7        -5 Clear    282.
##  7 2018-12-22 22:00:00     40.0    -105.         -7 Clear     NA 
##  8 2018-12-22 22:00:00     30.3     -97.7        -6 Clear     NA 
##  9 2018-12-22 22:00:00     32.8    -117.         -8 Clear     NA 
## 10 2015-04-09 05:00:00     32.8    -117.         -7 Partly  340.
## #  with 189,951 more rows, and 23 more variables: ozone_error <dbl>,
## #   temperature <dbl>, temperature_error <dbl>, dew_point <dbl>,
## #   dew_point_error <dbl>, humidity <dbl>, humidity_error <dbl>,
## #   visibility <dbl>, visibility_error <dbl>, apparent_temperature <dbl>,
## #   apparent_temperature_error <dbl>, pressure <dbl>,
## #   pressure_error <dbl>, wind_speed <dbl>, wind_speed_error <dbl>,
## #   cloud_cover <dbl>, cloud_cover_error <dbl>, wind_bearing <int>,
## #   precip_intensity <dbl>, precip_intensity_error <dbl>,
## #   precip_probability <dbl>, precip_type <chr>, avg_use <dbl>
…
