…
```
 [1]  1  2  3  4  5  6  7  8  9 10
```

Using Data
========================================================



```r
flights
```

```
# A tibble: 336,776 x 19
    year month   day dep_time sched_dep_time dep_delay arr_time
   <int> <int> <int>    <int>          <int>     <dbl>    <int>
 1  2013     1     1      517            515         2      830
 2  2013     1     1      533            529         4      850
 3  2013     1     1      542            540         2      923
 4  2013     1     1      544            545        -1     1004
 5  2013     1     1      554            600        -6      812
 6  2013     1     1      554            558        -4      740
 7  2013     1     1      555            600        -5      913
 8  2013     1     1      557            600        -3      709
 9  2013     1     1      557            600        -3      838
10  2013     1     1      558            600        -2      753
# ... with 336,766 more rows, and 12 more variables: sched_arr_time <int>,
#   arr_delay <dbl>, carrier <chr>, flight <int>, tailnum <chr>,
#   origin <chr>, dest <chr>, air_time <dbl>, distance <dbl>, hour <dbl>,
#   minute <dbl>, time_hour <dttm>
```
…
```r
nycflights13::flights %>% 
  View()
```


Tibble vs. data.frame
========================================================

- Printing:

```
# A tibble: 1,000 x 5
   a                   b              c      d e    
   <dttm>              <date>     <int>  <dbl> <chr>
 1 2018-11-29 00:01:13 2018-12-15     1 0.715  c    
 2 2018-11-29 02:14:22 2018-12-23     2 0.113  g    
 3 2018-11-29 11:05:54 2018-11-29     3 0.529  v    
 4 2018-11-29 11:18:22 2018-12-13     4 0.447  n    
 5 2018-11-29 02:01:45 2018-12-11     5 0.493  p    
 6 2018-11-28 18:13:51 2018-12-16     6 0.0822 z    
 7 2018-11-28 18:46:55 2018-12-01     7 0.472  s    
 8 2018-11-29 07:05:54 2018-12-09     8 0.642  g    
 9 2018-11-28 15:19:43 2018-12-01     9 0.305  m    
10 2018-11-29 02:06:08 2018-12-15    10 0.246  p    
# ... with 990 more rows
```
…
