…
Filter()
========================================================

- ```filter()``` allows to subset observations based on their values


```r
filter(flights, month == 12, day == 1)
```

```
# A tibble: 987 x 19
   year month   day dep_time sched_dep_time dep_delay arr_time
  <int> <int> <int>    <int>          <int>     <dbl>    <int>
1  2013    12     1       13           2359        14      446
2  2013    12     1       17           2359        18      443
3  2013    12     1      453            500        -7      636
# ... with 984 more rows, and 12 more variables: sched_arr_time <int>,
#   arr_delay <dbl>, carrier <chr>, flight <int>, tailnum <chr>,
#   origin <chr>, dest <chr>, air_time <dbl>, distance <dbl>, hour <dbl>,
#   minute <dbl>, time_hour <dttm>
```
…
- This is not terribly helpful. Introducing ```group_by()```

Summarise() and Group_by()
========================================================



```r
by_day <- group_by(flights, year, month, day)

summarise(by_day, delay = mean(dep_delay, na.rm = TRUE))
```

```
# A tibble: 365 x 4
# Groups:   year, month [?]
   year month   day delay
  <int> <int> <int> <dbl>
1  2013     1     1  11.5
2  2013     1     2  13.9
3  2013     1     3  11.0
# ... with 362 more rows
```
…
delay <- filter(delay, count > 20, dest != "HNL")
```

The Pipe (again)
========================================================

```r
delay
```

```
# A tibble: 96 x 4
  dest  count  dist delay
  <chr> <int> <dbl> <dbl>
1 ABQ     254  1826  4.38
2 ACK     265   199  4.85
3 ALB     439   143 14.4 
# ... with 93 more rows
```
…
Grouping by multiple variables
========================================================

- Grouping by multiple variables each summary peels off one level of the grouping


```r
daily <- group_by(flights, year, month, day)
(per_day <- summarise(daily, flights = n()))
```

```
# A tibble: 365 x 4
# Groups:   year, month [?]
   year month   day flights
  <int> <int> <int>   <int>
1  2013     1     1     842
2  2013     1     2     943
3  2013     1     3     914
# ... with 362 more rows
```

Grouping by multiple variables
========================================================



```r
(per_month <- summarise(per_day, flights = sum(flights)))
```

```
# A tibble: 12 x 3
# Groups:   year [?]
   year month flights
  <int> <int>   <int>
1  2013     1   27004
2  2013     2   24951
3  2013     3   28834
# ... with 9 more rows
```
…
